^C:\USERS\LUKE\DOCUMENTS\VISUAL STUDIO 2013\PROJECTS\PROJECT2\PROJECT2\DEBUG\PROGRAM2.OBJ|C:\USERS\LUKE\DOCUMENTS\VISUAL STUDIO 2013\PROJECTS\PROJECT2\PROJECT2\DEBUG\TEAM.OBJ
C:\USERS\LUKE\DOCUMENTS\VISUAL STUDIO 2013\PROJECTS\PROJECT2\DEBUG\PROJECT2.ILK
C:\USERS\LUKE\DOCUMENTS\VISUAL STUDIO 2013\PROJECTS\PROJECT2\DEBUG\PROJECT2.EXE
C:\USERS\LUKE\DOCUMENTS\VISUAL STUDIO 2013\PROJECTS\PROJECT2\DEBUG\PROJECT2.PDB
